Nollatoleranssi-hankkeen liitesivusto - 29 Epäasiallisen ja väkivaltaisen kohtelun esiintyvyyden mittarin validointi
…
Modifikaatioindeksit, vain virhekorrelaatiot

modificationIndices(malli.1) |>
  arrange(desc(mi)) |>
  filter(op == "~~") |>
  rowwise() |>
  mutate(
    p = pchisq(.data$mi, df = 1, lower.tail = FALSE),
    p.holm = p.adjust(.data$p, method = "holm")
  ) |>
  ungroup() |>
  filter(p.holm < .05) |>
  select(lhs, op, rhs, mi, sepc.all, p.holm)

# A tibble: 37 × 6
   lhs   op    rhs      mi sepc.all   p.holm
   <chr> <chr> <chr> <dbl>    <dbl>    <dbl>
 1 k3_5  ~~    k12_5  90.0    0.388 2.33e-21
 2 k3_7  ~~    k12_7  54.4    0.318 1.65e-13
 3 k3_3  ~~    k3_4   24.1    0.201 9.37e- 7
 4 k3_6  ~~    k12_6  22.5    0.258 2.11e- 6
 5 k3_2  ~~    k12_2  21.9    0.186 2.81e- 6
 6 k3_3  ~~    k3_5   21.4   -0.192 3.68e- 6
 7 k12_1 ~~    k12_2  20.4   -0.234 6.33e- 6
 8 k12_3 ~~    k12_7  18.7   -0.195 1.53e- 5
 9 k3_1  ~~    k12_1  16.0    0.219 6.20e- 5
10 k12_1 ~~    k12_6  15.1    0.316 1.02e- 4
# ℹ 27 more rows
…
Modifikaatioindeksit, vain virhekorrelaatiot

modificationIndices(malli.2) |>
  arrange(desc(mi)) |>
  filter(op == "~~") |>
  rowwise() |>
  mutate(
    p = pchisq(.data$mi, df = 1, lower.tail = FALSE),
    p.holm = p.adjust(.data$p, method = "holm")
  ) |>
  ungroup() |>
  filter(p.holm < .05) |>
  select(lhs, op, rhs, mi, sepc.all, p.holm)

# A tibble: 35 × 6
   lhs   op    rhs      mi sepc.all   p.holm
   <chr> <chr> <chr> <dbl>    <dbl>    <dbl>
 1 k3_5  ~~    k12_5  91.8    0.389 9.48e-22
 2 k3_7  ~~    k12_7  32.0    0.379 1.54e- 8
 3 k3_6  ~~    k12_7  31.5   -0.277 2.01e- 8
 4 k3_3  ~~    k3_4   31.2    0.226 2.29e- 8
 5 k3_2  ~~    k3_6   25.8    0.235 3.71e- 7
 6 k12_5 ~~    k12_7  22.7    0.199 1.86e- 6
 7 k3_2  ~~    k12_2  21.6    0.183 3.33e- 6
 8 k3_6  ~~    k12_6  20.4    0.222 6.25e- 6
 9 k12_1 ~~    k12_2  19.8   -0.229 8.45e- 6
10 k12_1 ~~    k12_6  19.8    0.352 8.56e- 6
# ℹ 25 more rows
…
